{
    "UserAgent": "aws-amplify/cli",
    "Version": "0.1.0",
    "IdentityManager": {
        "Default": {}
    },
    "CredentialsProvider": {
        "CognitoIdentity": {
            "Default": {
                "PoolId": "ap-south-1:b65c2b9f-8282-4b3d-b0b8-cef95ff76ab4",
                "Region": "ap-south-1"
            }
        }
    },
    "CognitoUserPool": {
        "Default": {
            "PoolId": "ap-south-1_mdcZz3NZl",
            "AppClientId": "mq0imo8ai4jteop3srs9subo6",
            "AppClientSecret": "eej65l26tglcm8s15u3j3df6tc43gjrmg7ab8nbf5elt5bevrmj",
            "Region": "ap-south-1"
        }
    },
    "AppSync": {
        "Default": {
            "ApiUrl": "https://vje63bwpdvbndlgbnwf6kihc4y.appsync-api.ap-south-1.amazonaws.com/graphql",
            "Region": "ap-south-1",
            "AuthMode": "API_KEY",
            "ApiKey": "da2-eonuo6u2cjdldn67sznryfmfre"
        }
    }
}
