{
    "AppSyncApiName": "cleanindiaworker",
    "schemaGraphql": "s3://leanndiaorker-20181228214955-deployment/amplify-appsync-files/schema.graphql.1546014197385",
    "ResolverBucket": "leanndiaorker-20181228214955-deployment",
    "ResolverRootKey": "amplify-appsync-files",
    "DeploymentTimestamp": "1546014197385"
}