{
	"providers": {
		"awscloudformation": {
			"AuthRoleName": "leanndiaorker-20181228214955-authRole",
			"UnauthRoleArn": "arn:aws:iam::964297824059:role/leanndiaorker-20181228214955-unauthRole",
			"AuthRoleArn": "arn:aws:iam::964297824059:role/leanndiaorker-20181228214955-authRole",
			"Region": "ap-south-1",
			"DeploymentBucketName": "leanndiaorker-20181228214955-deployment",
			"UnauthRoleName": "leanndiaorker-20181228214955-unauthRole",
			"StackName": "leanndiaorker-20181228214955",
			"StackId": "arn:aws:cloudformation:ap-south-1:964297824059:stack/leanndiaorker-20181228214955/6b80e6d0-0abc-11e9-8885-0654b35760ac"
		}
	},
	"api": {
		"cleanindiaworker": {
			"service": "AppSync",
			"providerPlugin": "awscloudformation",
			"output": {
				"securityType": "API_KEY",
				"GraphQLAPIIdOutput": "oyzfunl2cvg4fng3y4fxbizcna",
				"GraphQLAPIEndpointOutput": "https://vje63bwpdvbndlgbnwf6kihc4y.appsync-api.ap-south-1.amazonaws.com/graphql",
				"GraphQLAPIKeyOutput": "da2-eonuo6u2cjdldn67sznryfmfre"
			},
			"providerMetadata": {
				"s3TemplateURL": "https://s3.amazonaws.com/leanndiaorker-20181228214955-deployment/amplify-cfn-templates/api/cloudformation-template.json",
				"logicalId": "apicleanindiaworker"
			},
			"lastPushTimeStamp": "2018-12-28T16:26:32.633Z",
			"lastPushDirHash": "uma0DPRjzejF9fU26q1MlI+Z/qA="
		}
	}
}