{
    "projectName": "CleanIndiaWorker",
    "projectPath": "/Users/ginni/Desktop/Clean India Projects/CleanIndiaWorker",
    "defaultEditor": "vim",
    "frontendHandler": {
        "ios": "/usr/local/lib/node_modules/@aws-amplify/cli/node_modules/amplify-frontend-ios"
    },
    "providers": {
        "awscloudformation": "/usr/local/lib/node_modules/@aws-amplify/cli/node_modules/amplify-provider-awscloudformation"
    }
}